[
    {
       "constant":false,
       "inputs":[
          {
             "internalType":"address",
             "name":"_to",
             "type":"address"
          },
          {
             "internalType":"uint256",
             "name":"_value",
             "type":"uint256"
          }
       ],
       "name":"transfer",
       "outputs":[
          {
             "internalType":"bool",
             "name":"_success",
             "type":"bool"
          }
       ],
       "payable":false,
       "stateMutability":"nonpayable",
       "type":"function"
    }
 ]